\relax 
\@writefile{toc}{\contentsline {section}{Introduction}{2}}
\@writefile{toc}{\contentsline {section}{Results}{3}}
\@writefile{toc}{\contentsline {subsection}{30 Nodes, No Heat Generation}{3}}
\@writefile{toc}{\contentsline {subsubsection}{90 Seconds}{3}}
\@writefile{toc}{\contentsline {subsubsection}{360 Seconds}{4}}
\@writefile{toc}{\contentsline {subsection}{60 Nodes, No Heat Generation}{5}}
\@writefile{toc}{\contentsline {subsubsection}{90 Seconds}{5}}
\@writefile{toc}{\contentsline {subsubsection}{360 Seconds}{6}}
\@writefile{toc}{\contentsline {subsection}{30 Nodes, 1 $\sfrac {W}{cm^3}$ Heat Generation}{7}}
\@writefile{toc}{\contentsline {subsubsection}{90 Seconds}{7}}
\@writefile{toc}{\contentsline {subsubsection}{360 Seconds}{8}}
\@writefile{toc}{\contentsline {subsection}{60 Nodes, 1 $\sfrac {W}{cm^3}$ Heat Generation}{9}}
\@writefile{toc}{\contentsline {subsubsection}{90 Seconds}{9}}
\@writefile{toc}{\contentsline {subsubsection}{360 Seconds}{10}}
\@writefile{toc}{\contentsline {subsection}{Overview}{11}}
\@writefile{toc}{\contentsline {subsection}{Steady-State}{11}}
\@writefile{toc}{\contentsline {subsubsection}{Calculations}{11}}
\@writefile{toc}{\contentsline {subsection}{Numerical Instability}{12}}
\@writefile{toc}{\contentsline {section}{Code}{13}}
\@writefile{toc}{\contentsline {subsection}{Main Program}{13}}
\newlabel{ComputerProjectYarmis}{{}{13}}
\@writefile{lol}{\contentsline {lstlisting}{ComputerProjectYarmis.m}{13}}
\@writefile{toc}{\contentsline {subsection}{Steady-State Calculation}{16}}
\newlabel{MinimizeShort}{{}{16}}
\@writefile{lol}{\contentsline {lstlisting}{MinimizeShort.m}{16}}
\@writefile{toc}{\contentsline {subsection}{Functions}{17}}
\@writefile{toc}{\contentsline {subsubsection}{\texttt  {converge}}{17}}
\newlabel{converge}{{}{17}}
\@writefile{lol}{\contentsline {lstlisting}{converge.m}{17}}
\@writefile{toc}{\contentsline {subsubsection}{\texttt  {plotq}}{19}}
\newlabel{plotq}{{}{19}}
\@writefile{lol}{\contentsline {lstlisting}{plotq.m}{19}}
\@writefile{toc}{\contentsline {subsubsection}{\texttt  {tbedge}}{20}}
\newlabel{tbedge}{{}{20}}
\@writefile{lol}{\contentsline {lstlisting}{tbedge.m}{20}}
\@writefile{toc}{\contentsline {subsubsection}{\texttt  {tcorner}}{21}}
\newlabel{tcorner}{{}{21}}
\@writefile{lol}{\contentsline {lstlisting}{tcorner.m}{21}}
\@writefile{toc}{\contentsline {subsubsection}{\texttt  {tledge}}{22}}
\newlabel{tledge}{{}{22}}
\@writefile{lol}{\contentsline {lstlisting}{tledge.m}{22}}
\@writefile{toc}{\contentsline {subsubsection}{\texttt  {tnode}}{23}}
\newlabel{tnode}{{}{23}}
\@writefile{lol}{\contentsline {lstlisting}{tnode.m}{23}}
